examples/lattice_ice40/lattice_ice40_counter/contador_tb.vcd
$date
	Sat Jan 30 10:03:51 2016
$end
$version
	Icarus Verilog
$end
$timescale
	10ns
$end
$scope module contador_tb $end
$var wire 5 ! leds [4:0] $end
$var reg 1 " clk $end
$scope module CONT0 $end
$var wire 1 # clk $end
$var wire 5 $ leds [4:0] $end
$var reg 6 % cont [5:0] $end
$var reg 1 & rstn $end
$upscope $end
$upscope $end
$enddefinitions $end
#0
$dumpvars
0&
bx %
bx $
0#
0"
bx !
$end
#5
b0 !
b0 $
1&
b0 %
1"
1#
#10
0"
0#
#15
b1 !
b1 $
b1 %
1"
1#
#20
0"
0#
#25
b10 !
b10 $
b10 %
1"
1#
#30
0"
0#
#35
b11 !
b11 $
b11 %
1"
1#
#40
0"
0#
#45
b100 !
b100 $
b100 %
1"
1#
#50
0"
0#
#55
b101 !
b101 $
b101 %
1"
1#
#60
0"
0#
#65
b110 !
b110 $
b110 %
1"
1#
#70
0"
0#
#75
b111 !
b111 $
b111 %
1"
1#
#80
0"
0#
#85
b1000 !
b1000 $
b1000 %
1"
1#
#90
0"
0#
#95
b1001 !
b1001 $
b1001 %
1"
1#
#100
0"
0#
#105
b1010 !
b1010 $
b1010 %
1"
1#
#110
0"
0#
#115
b1011 !
b1011 $
b1011 %
1"
1#
#120
0"
0#
#125
b1100 !
b1100 $
b1100 %
1"
1#
#130
0"
0#
#135
b1101 !
b1101 $
b1101 %
1"
1#
#140
0"
0#
#145
b1110 !
b1110 $
b1110 %
1"
1#
#150
0"
0#
#155
b1111 !
b1111 $
b1111 %
1"
1#
#160
0"
0#
#165
b10000 !
b10000 $
b10000 %
1"
1#
#170
0"
0#
#175
b10001 !
b10001 $
b10001 %
1"
1#
#180
0"
0#
#185
b10010 !
b10010 $
b10010 %
1"
1#
#190
0"
0#
#195
b10011 !
b10011 $
b10011 %
1"
1#
#200
0"
0#
#205
b10100 !
b10100 $
b10100 %
1"
1#
#210
0"
0#
#215
b10101 !
b10101 $
b10101 %
1"
1#
#220
0"
0#
#225
b10110 !
b10110 $
b10110 %
1"
1#
#230
0"
0#
#235
b10111 !
b10111 $
b10111 %
1"
1#
#240
0"
0#
#245
b11000 !
b11000 $
b11000 %
1"
1#
#250
0"
0#
#255
b11001 !
b11001 $
b11001 %
1"
1#
#260
0"
0#
#265
b11010 !
b11010 $
b11010 %
1"
1#
#270
0"
0#
#275
b11011 !
b11011 $
b11011 %
1"
1#
#280
0"
0#
#285
b11100 !
b11100 $
b11100 %
1"
1#
#290
0"
0#
#295
b11101 !
b11101 $
b11101 %
1"
1#
#300
0"
0#
#305
b11110 !
b11110 $
b11110 %
1"
1#
#310
0"
0#
#315
b11111 !
b11111 $
b11111 %
1"
1#
#320
0"
0#
#325
b0 !
b0 $
b100000 %
1"
1#
#330
0"
0#
#335
b1 !
b1 $
b100001 %
1"
1#
#340
0"
0#
#345
b10 !
b10 $
b100010 %
1"
1#
#350
0"
0#
#355
b11 !
b11 $
b100011 %
1"
1#
#360
0"
0#
#365
b100 !
b100 $
b100100 %
1"
1#
#370
0"
0#
#375
b101 !
b101 $
b100101 %
1"
1#
#380
0"
0#
#385
b110 !
b110 $
b100110 %
1"
1#
#390
0"
0#
#395
b111 !
b111 $
b100111 %
1"
1#
#400
0"
0#
#405
b1000 !
b1000 $
b101000 %
1"
1#
#410
0"
0#
#415
b1001 !
b1001 $
b101001 %
1"
1#
#420
0"
0#
#425
b1010 !
b1010 $
b101010 %
1"
1#
#430
0"
0#
#435
b1011 !
b1011 $
b101011 %
1"
1#
#440
0"
0#
#445
b1100 !
b1100 $
b101100 %
1"
1#
#450
0"
0#
#455
b1101 !
b1101 $
b101101 %
1"
1#
#460
0"
0#
#465
b1110 !
b1110 $
b101110 %
1"
1#
#470
0"
0#
#475
b1111 !
b1111 $
b101111 %
1"
1#
#480
0"
0#
#485
b10000 !
b10000 $
b110000 %
1"
1#
#490
0"
0#
#495
b10001 !
b10001 $
b110001 %
1"
1#
#500
0"
0#
#505
b10010 !
b10010 $
b110010 %
1"
1#
#510
0"
0#
#515
b10011 !
b10011 $
b110011 %
1"
1#
#520
0"
0#
#525
b10100 !
b10100 $
b110100 %
1"
1#
#530
0"
0#
#535
b10101 !
b10101 $
b110101 %
1"
1#
#540
0"
0#
#545
b10110 !
b10110 $
b110110 %
1"
1#
#550
0"
0#
#555
b10111 !
b10111 $
b110111 %
1"
1#
#560
0"
0#
#565
b11000 !
b11000 $
b111000 %
1"
1#
#570
0"
0#
#575
b11001 !
b11001 $
b111001 %
1"
1#
#580
0"
0#
#585
b11010 !
b11010 $
b111010 %
1"
1#
#590
0"
0#
#595
b11011 !
b11011 $
b111011 %
1"
1#
#600
0"
0#
#605
b11100 !
b11100 $
b111100 %
1"
1#
#610
0"
0#
#615
b11101 !
b11101 $
b111101 %
1"
1#
#620
0"
0#
#625
b11110 !
b11110 $
b111110 %
1"
1#
#630
0"
0#
#635
b11111 !
b11111 $
b111111 %
1"
1#
#640
0"
0#
#645
b0 !
b0 $
b0 %
1"
1#
#650
0"
0#
#655
b1 !
b1 $
b1 %
1"
1#
#660
0"
0#
#665
b10 !
b10 $
b10 %
1"
1#
#670
0"
0#
#675
b11 !
b11 $
b11 %
1"
1#
#680
0"
0#
#685
b100 !
b100 $
b100 %
1"
1#
#690
0"
0#
#695
b101 !
b101 $
b101 %
1"
1#
#700
0"
0#
#705
b110 !
b110 $
b110 %
1"
1#
#710
0"
0#
#715
b111 !
b111 $
b111 %
1"
1#
#720
0"
0#
#725
b1000 !
b1000 $
b1000 %
1"
1#
#730
0"
0#
#735
b1001 !
b1001 $
b1001 %
1"
1#
#740
0"
0#
#745
b1010 !
b1010 $
b1010 %
1"
1#
#750
0"
0#
#755
b1011 !
b1011 $
b1011 %
1"
1#
#760
0"
0#
#765
b1100 !
b1100 $
b1100 %
1"
1#
#770
0"
0#
#775
b1101 !
b1101 $
b1101 %
1"
1#
#780
0"
0#
#785
b1110 !
b1110 $
b1110 %
1"
1#
#790
0"
0#
#795
b1111 !
b1111 $
b1111 %
1"
1#
#800
0"
0#
#805
b10000 !
b10000 $
b10000 %
1"
1#
#810
0"
0#
#815
b10001 !
b10001 $
b10001 %
1"
1#
#820
0"
0#
#825
b10010 !
b10010 $
b10010 %
1"
1#
#830
0"
0#
#835
b10011 !
b10011 $
b10011 %
1"
1#
#840
0"
0#
#845
b10100 !
b10100 $
b10100 %
1"
1#
#850
0"
0#
#855
b10101 !
b10101 $
b10101 %
1"
1#
#860
0"
0#
#865
b10110 !
b10110 $
b10110 %
1"
1#
#870
0"
0#
#875
b10111 !
b10111 $
b10111 %
1"
1#
#880
0"
0#
#885
b11000 !
b11000 $
b11000 %
1"
1#
#890
0"
0#
#895
b11001 !
b11001 $
b11001 %
1"
1#
#900
0"
0#
#905
b11010 !
b11010 $
b11010 %
1"
1#
#910
0"
0#
#915
b11011 !
b11011 $
b11011 %
1"
1#
#920
0"
0#
#925
b11100 !
b11100 $
b11100 %
1"
1#
#930
0"
0#
#935
b11101 !
b11101 $
b11101 %
1"
1#
#940
0"
0#
#945
b11110 !
b11110 $
b11110 %
1"
1#
#950
0"
0#
#955
b11111 !
b11111 $
b11111 %
1"
1#
#960
0"
0#
#965
b0 !
b0 $
b100000 %
1"
1#
#970
0"
0#
#975
b1 !
b1 $
b100001 %
1"
1#
#980
0"
0#
#985
b10 !
b10 $
b100010 %
1"
1#
#990
0"
0#
#995
b11 !
b11 $
b100011 %
1"
1#
#1000
0"
0#
#1005
b100 !
b100 $
b100100 %
1"
1#
#1010
0"
0#
#1015
b101 !
b101 $
b100101 %
1"
1#
#1020
0"
0#
#1025
b110 !
b110 $
b100110 %
1"
1#
#1030
0"
0#
#1035
b111 !
b111 $
b100111 %
1"
1#
#1040
0"
0#
#1045
b1000 !
b1000 $
b101000 %
1"
1#
#1050
0"
0#
#1055
b1001 !
b1001 $
b101001 %
1"
1#
#1060
0"
0#
#1065
b1010 !
b1010 $
b101010 %
1"
1#
#1070
0"
0#
#1075
b1011 !
b1011 $
b101011 %
1"
1#
#1080
0"
0#
#1085
b1100 !
b1100 $
b101100 %
1"
1#
#1090
0"
0#
#1095
b1101 !
b1101 $
b101101 %
1"
1#
#1100
0"
0#
#1105
b1110 !
b1110 $
b101110 %
1"
1#
#1110
0"
0#
#1115
b1111 !
b1111 $
b101111 %
1"
1#
#1120
0"
0#
#1125
b10000 !
b10000 $
b110000 %
1"
1#
#1130
0"
0#
#1135
b10001 !
b10001 $
b110001 %
1"
1#
#1140
0"
0#
#1145
b10010 !
b10010 $
b110010 %
1"
1#
#1150
0"
0#
#1155
b10011 !
b10011 $
b110011 %
1"
1#
#1160
0"
0#
#1165
b10100 !
b10100 $
b110100 %
1"
1#
#1170
0"
0#
#1175
b10101 !
b10101 $
b110101 %
1"
1#
#1180
0"
0#
#1185
b10110 !
b10110 $
b110110 %
1"
1#
#1190
0"
0#
#1195
b10111 !
b10111 $
b110111 %
1"
1#
#1200
0"
0#
#1205
b11000 !
b11000 $
b111000 %
1"
1#
#1210
0"
0#
#1215
b11001 !
b11001 $
b111001 %
1"
1#
#1220
0"
0#
#1225
b11010 !
b11010 $
b111010 %
1"
1#
#1230
0"
0#
#1235
b11011 !
b11011 $
b111011 %
1"
1#
#1240
0"
0#
#1245
b11100 !
b11100 $
b111100 %
1"
1#
#1250
0"
0#
#1255
b11101 !
b11101 $
b111101 %
1"
1#
#1260
0"
0#
#1265
b11110 !
b11110 $
b111110 %
1"
1#
#1270
0"
0#
#1275
b11111 !
b11111 $
b111111 %
1"
1#
#1280
0"
0#
#1285
b0 !
b0 $
b0 %
1"
1#
#1290
0"
0#
#1295
b1 !
b1 $
b1 %
1"
1#
#1300
0"
0#
#1305
b10 !
b10 $
b10 %
1"
1#
#1310
0"
0#
#1315
b11 !
b11 $
b11 %
1"
1#
#1320
0"
0#
#1325
b100 !
b100 $
b100 %
1"
1#
#1330
0"
0#
#1335
b101 !
b101 $
b101 %
1"
1#
#1340
0"
0#
#1345
b110 !
b110 $
b110 %
1"
1#
#1350
0"
0#
#1355
b111 !
b111 $
b111 %
1"
1#
#1360
0"
0#
#1365
b1000 !
b1000 $
b1000 %
1"
1#
#1370
0"
0#
#1375
b1001 !
b1001 $
b1001 %
1"
1#
#1380
0"
0#
#1385
b1010 !
b1010 $
b1010 %
1"
1#
#1390
0"
0#
#1395
b1011 !
b1011 $
b1011 %
1"
1#
#1400
0"
0#
#1405
b1100 !
b1100 $
b1100 %
1"
1#
#1410
0"
0#
#1415
b1101 !
b1101 $
b1101 %
1"
1#
#1420
0"
0#
#1425
b1110 !
b1110 $
b1110 %
1"
1#
#1430
0"
0#
#1435
b1111 !
b1111 $
b1111 %
1"
1#
#1440
0"
0#
#1445
b10000 !
b10000 $
b10000 %
1"
1#
#1450
0"
0#
#1455
b10001 !
b10001 $
b10001 %
1"
1#
#1460
0"
0#
#1465
b10010 !
b10010 $
b10010 %
1"
1#
#1470
0"
0#
#1475
b10011 !
b10011 $
b10011 %
1"
1#
#1480
0"
0#
#1485
b10100 !
b10100 $
b10100 %
1"
1#
#1490
0"
0#
#1495
b10101 !
b10101 $
b10101 %
1"
1#
#1500
0"
0#
#1505
b10110 !
b10110 $
b10110 %
1"
1#
#1510
0"
0#
#1515
b10111 !
b10111 $
b10111 %
1"
1#
#1520
0"
0#
#1525
b11000 !
b11000 $
b11000 %
1"
1#
#1530
0"
0#
#1535
b11001 !
b11001 $
b11001 %
1"
1#
#1540
0"
0#
#1545
b11010 !
b11010 $
b11010 %
1"
1#
#1550
0"
0#
#1555
b11011 !
b11011 $
b11011 %
1"
1#
#1560
0"
0#
#1565
b11100 !
b11100 $
b11100 %
1"
1#
#1570
0"
0#
#1575
b11101 !
b11101 $
b11101 %
1"
1#
#1580
0"
0#
#1585
b11110 !
b11110 $
b11110 %
1"
1#
#1590
0"
0#
#1595
b11111 !
b11111 $
b11111 %
1"
1#
#1600
0"
0#
#1605
b0 !
b0 $
b100000 %
1"
1#
#1610
0"
0#
#1615
b1 !
b1 $
b100001 %
1"
1#
#1620
0"
0#
#1625
b10 !
b10 $
b100010 %
1"
1#
#1630
0"
0#
#1635
b11 !
b11 $
b100011 %
1"
1#
#1640
0"
0#
#1645
b100 !
b100 $
b100100 %
1"
1#
#1650
0"
0#
#1655
b101 !
b101 $
b100101 %
1"
1#
#1660
0"
0#
#1665
b110 !
b110 $
b100110 %
1"
1#
#1670
0"
0#
#1675
b111 !
b111 $
b100111 %
1"
1#
#1680
0"
0#
#1685
b1000 !
b1000 $
b101000 %
1"
1#
#1690
0"
0#
#1695
b1001 !
b1001 $
b101001 %
1"
1#
#1700
0"
0#
#1705
b1010 !
b1010 $
b101010 %
1"
1#
#1710
0"
0#
#1715
b1011 !
b1011 $
b101011 %
1"
1#
#1720
0"
0#
#1725
b1100 !
b1100 $
b101100 %
1"
1#
#1730
0"
0#
#1735
b1101 !
b1101 $
b101101 %
1"
1#
#1740
0"
0#
#1745
b1110 !
b1110 $
b101110 %
1"
1#
#1750
0"
0#
#1755
b1111 !
b1111 $
b101111 %
1"
1#
#1760
0"
0#
#1765
b10000 !
b10000 $
b110000 %
1"
1#
#1770
0"
0#
#1775
b10001 !
b10001 $
b110001 %
1"
1#
#1780
0"
0#
#1785
b10010 !
b10010 $
b110010 %
1"
1#
#1790
0"
0#
#1795
b10011 !
b10011 $
b110011 %
1"
1#
#1800
0"
0#
#1805
b10100 !
b10100 $
b110100 %
1"
1#
#1810
0"
0#
#1815
b10101 !
b10101 $
b110101 %
1"
1#
#1820
0"
0#
#1825
b10110 !
b10110 $
b110110 %
1"
1#
#1830
0"
0#
#1835
b10111 !
b10111 $
b110111 %
1"
1#
#1840
0"
0#
#1845
b11000 !
b11000 $
b111000 %
1"
1#
#1850
0"
0#
#1855
b11001 !
b11001 $
b111001 %
1"
1#
#1860
0"
0#
#1865
b11010 !
b11010 $
b111010 %
1"
1#
#1870
0"
0#
#1875
b11011 !
b11011 $
b111011 %
1"
1#
#1880
0"
0#
#1885
b11100 !
b11100 $
b111100 %
1"
1#
#1890
0"
0#
#1895
b11101 !
b11101 $
b111101 %
1"
1#
#1900
0"
0#
#1905
b11110 !
b11110 $
b111110 %
1"
1#
#1910
0"
0#
#1915
b11111 !
b11111 $
b111111 %
1"
1#
#1920
0"
0#
#1925
b0 !
b0 $
b0 %
1"
1#
#1930
0"
0#
#1935
b1 !
b1 $
b1 %
1"
1#
#1940
0"
0#
#1945
b10 !
b10 $
b10 %
1"
1#
#1950
0"
0#
#1955
b11 !
b11 $
b11 %
1"
1#
#1960
0"
0#
#1965
b100 !
b100 $
b100 %
1"
1#
#1970
0"
0#
#1975
b101 !
b101 $
b101 %
1"
1#
#1980
0"
0#
#1985
b110 !
b110 $
b110 %
1"
1#
#1990
0"
0#
#1995
b111 !
b111 $
b111 %
1"
1#
